^D:\PROJECTS\C++\CONSOLEAPPLICATION1\DEBUG\CONSOLEAPPLICATION1.OBJ
D:\PROJECTS\C++\CONSOLEAPPLICATION1\DEBUG\CONSOLEAPPLICATION1.ILK
D:\PROJECTS\C++\CONSOLEAPPLICATION1\DEBUG\CONSOLEAPPLICATION1.EXE
D:\PROJECTS\C++\CONSOLEAPPLICATION1\DEBUG\CONSOLEAPPLICATION1.PDB
